1211560	1213863	CDS
				locus_tag	Rv1087
				gene	PE_PGRS21
				product	PE-PGRS family protein PE_PGRS21, Putative (2Z,6E)-farnesyl diphosphate synthase.
				experiment	EXISTENCE:Liquid chromatography-mass spectrometry. [PMID: 21085642]
				note	FunctionalCategory: PE/PPE
				note	Expressed in vivo in guinea pig lung at 90 but not 30 days post-infection. [PMID: 21085642]

1457558	1458211	CDS
				locus_tag	Rv1301
				product	Conserved protein, Putative L-threonylcarbamoyladenylate synthase.
				note	FunctionalCategory: conserved hypotheticals
				experiment	COORDINATES:N-terminal peptide mass spectrometry [PMID: 26536359]
1507573	1508187	CDS
				locus_tag	Rv1341
				product	Conserved protein, Probable Trans-2-decenoyl-[acyl-carrier-protein] isomerase.
				note	FunctionalCategory: conserved hypotheticals
379148	378657	CDS
				locus_tag	Rv0310c
				product	Conserved protein, Putative Bile-acid 7-alpha-dehydratase.
				note	FunctionalCategory: conserved hypotheticals
1484982	1485278	CDS
				locus_tag	Rv1322
				product	Conserved hypothetical protein, Putative Methylmalonyl-CoA epimerase.
				note	microarray expression analysis [PMID: 18253472]
				note	Genechip analysis (algorithm analysis, cluster analysis) [PMID: 18253472]
				note	FunctionalCategory: conserved hypotheticals
				note	contains a Glyoxalase domain

3190152	3189583	CDS
				locus_tag	Rv2879c
				product	Conserved hypothetical protein, Putative 23S rRNA (adenine(2503)-C(2))-methyltransferase.
				note	FunctionalCategory: conserved hypotheticals

3926569	3930714	CDS
				locus_tag	Rv3507
				gene	PE_PGRS53
				product	PE-PGRS family protein PE_PGRS53, Probable Fatty-acyl-CoA synthase.
				experiment	EXISTENCE:Liquid chromatography-mass spectrometry [PMID: 21085642]
				note	FunctionalCategory: PE/PPE
				note	Expressed in vivo in guinea pig lung at both 30 and 90 days post-infection [PMID: 21085642]
				note	Upregulated on treatment with glycine/lysozyme [PMID: 23195184]
925361	927610	CDS
				locus_tag	Rv0833
				gene	PE_PGRS13
				product	PE-PGRS family protein PE_PGRS13, Probable Fatty-acyl-CoA synthase.
				note	FunctionalCategory: PE/PPE
1865382	1862347	CDS
				locus_tag	Rv1651c
				gene	PE_PGRS30
				product	PE-PGRS family protein PE_PGRS30, Putative Fatty-acyl-CoA synthase.
				experiment      DESCRIPTION:Measurement of growth kinetics, immunoblotting, immunoelectron microscopy evaluation [PMID: 21732963]
				experiment      DESCRIPTION:Gene knockout and complementation, Mycobacterial infection of mice, cytotoxicity assay, immunofluorescence, microscopy [PMID: 22050772]
				experiment      DESCRIPTION:Immunoblotting, immunofluorescence, confocal microscopy and image analysis [PMID: 25390359]
				experiment      DESCRIPTION:Mycobacterial infection of macrophages, CFU counting, cytokine release assays [PMID: 27129781]
				experiment	DESCRIPTION:Proteinase K sensitivity assay [PMID: 24530527]
				experiment	EXISTENCE:Liquid chromatography-mass spectrometry [PMID: 21085642]
				note	FunctionalCategory: PE/PPE
				note	Causes phenotypic changes with altered colony morphology and growth profile (smaller colony size) in M. smegmatis [PMID: 21732963]
				note	Full virulence factor; increases pathogenicity in M. smegmatis [PMID: 22050772]
				note	Required to block phagosome maturation; knocking out the gene results in impaired ability to survive and multiply within macrophages [PMID: 22050772]
				note	Probably contributes to protein cellular localization and causes differential cellular localization during infection [PMID: 25390359]
				note	Downregulates the production of pro-inflammatory cytokines by infected macrophages and modulates macrophage cytokine response [PMID: 27129781]
				note	Exposed on the mycobacterial surface through its PGRS domain [PMID: 24530527]
				note	Expressed in vivo in guinea pig lung at both 30 and 90 days post-infection [PMID: 21085642]
3389922	3391502	CDS
				locus_tag	Rv3031
				product	Conserved protein, Putative 1,4-alpha-glucan branching enzyme., Putative Luteolin 7-O-glucuronosyltransferase., Putative N-acetylglucosaminyldiphosphoundecaprenol glucosyltransferase., Putative Hydroxyanthraquinone glucosyltransferase., Putative Lipopolysaccharide N-acetylmannosaminouronosyltransferase., Putative Alpha-1,3-glucan synthase., Putative Lipid-A-disaccharide synthase., Putative Flavanone 7-O-beta-glucosyltransferase., Putative Galactolipid galactosyltransferase., Putative mannosaminyltransferase., Putative Glycogenin glucosyltransferase.
				note	FunctionalCategory: conserved hypotheticals
454372	453230	CDS
				locus_tag	Rv0376c
				product	Conserved hypothetical protein, Probable Xanthine dehydrogenase.
				note	FunctionalCategory: conserved hypotheticals
148342	147908	CDS
				locus_tag	Rv0121c
				product	Conserved protein, Probable Pyridoxal 5'-phosphate synthase.
				note	FunctionalCategory: conserved hypotheticals
1742845	1743771	CDS
				locus_tag	Rv1540
				product	Conserved hypothetical protein member of yabO/yceC/yfiI family, Putative 23S rRNA pseudouridine(1911/1915/1917) synthase.
				note	FunctionalCategory: conserved hypotheticals
26881	25913	CDS
				locus_tag	Rv0021c
				product	putative nitronate monooxygenase, Putative Enoyl-[acyl-carrier-protein] reductase (NADH)., Putative tRNA-dihydrouridine(20a/20b) synthase (NAD(P)(+))., Putative tRNA-dihydrouridine(20) synthase (NAD(P)(+))., Putative Artemisinic aldehyde Delta(11(13)) reductase., Putative Very-long-chain enoyl-CoA reductase., Putative Polyprenol reductase., Putative Acryloyl-CoA reductase (NADH)., Putative Botryococcus squalene synthase., Putative Botryococcene synthase., Putative UDP-N-acetylmuramate dehydrogenase., Putative Iridoid synthase.
				experiment	DESCRIPTION:recombinant DNA expression, enzyme activity assay and inhibition assay for homolog [PMID: 23408846]
				note	FunctionalCategory: conserved hypotheticals
				EC number	1.13.12.16
1944809	1945627	CDS
				locus_tag	Rv1718
				product	Conserved hypothetical protein, Probable 3-keto-5-aminohexanoate cleavage enzyme.
				note	FunctionalCategory: conserved hypotheticals
3941724	3944963	CDS
				locus_tag	Rv3512
				gene	PE_PGRS56
				product	PE-PGRS family protein PE_PGRS56, Probable Fatty-acyl-CoA synthase.
				experiment	EXISTENCE:Liquid chromatography-mass spectrometry [PMID: 21085642]
				note	FunctionalCategory: PE/PPE
				note	Expressed in vivo in guinea pig lung at both 30 and 90 days post-infection [PMID: 21085642]
				note    Possibly contributes to pathogenicity of Mycobacterium tuberculosis [PMID: 21924330]
3945794	3950263	CDS
				locus_tag	Rv3514
				gene	PE_PGRS57
				product	PE-PGRS family protein PE_PGRS57, Probable Fatty-acyl-CoA synthase.
				experiment	EXISTENCE:Liquid chromatography-mass spectrometry [PMID: 21085642]
				note	FunctionalCategory: PE/PPE
				note	Expressed in vivo in guinea pig lung at both 30 and 90 days post-infection [PMID: 21085642]
				note	downregulated on treatment with glycine/lysozyme [PMID: 23195184]
4146891	4145614	CDS
				locus_tag	Rv3703c
				product	Conserved hypothetical protein, Probable Gamma-glutamyl hercynylcysteine S-oxide synthase.
				note	FunctionalCategory: conserved hypotheticals
675916	671996	CDS
				locus_tag	Rv0578c
				gene	PE_PGRS7
				product	PE-PGRS family protein PE_PGRS7, Probable Fatty-acyl-CoA synthase.
				experiment	EXISTENCE:gel electrophoresis, liquid chromatography mass spectrometry[PMID: 21920479]
				note	FunctionalCategory: PE/PPE
				note	located in the cell membrane [PMID: 21920479]

product	GDP-mannose 4,6-dehydratase.GDP-mannose 4,6-dehydratase., GDP-mannose 4,6-dehydratase., GDP-mannose 4,6-dehydratase., GDP-mannose 4,6-dehydratase., GDP-mannose 4,6-dehydratase, GDP-mannose 4,6-dehydratase., GDP-mannose 4,6-dehydratase., GDP-mannose 4,6-dehydratase., Putative GDP-mannose 4,6-dehydratase.
1634627	1630638	CDS
				locus_tag	Rv1450c
				gene	PE_PGRS27
				product	PE-PGRS family protein PE_PGRS27, Probable Fatty-acyl-CoA synthase.
				note	FunctionalCategory: PE/PPE
				note	found in the mycobacterial cell wall [PMID: 20825248]
				note	highly expressed when SigL is overexpressed [PMID: 16199577]
				
1694544	1693996	CDS
				locus_tag	Rv1503c
				note	probable role in regulation of di-O-acyl-trehalose synthesis and sulfolipid synthesis
				experiment	DESCRIPTION:MALDI-Tof-MS, NMR, in vivo recombiant DNA expression, confocal microscopy and fluorescence assay [PMID: 20844580]
				note	FunctionalCategory: conserved hypotheticals
				product	Conserved hypothetical protein, Putative dTDP-4-amino-4,6-dideoxygalactose transaminase.
1526216	1525293	CDS
				locus_tag	Rv1357c
				experiment 	DESCRIPTION:protein purification; enzyme activity assay [PMID: 21151497]
				product	cyclic diguanylate phosphodiesterase, Putative Cyclic-guanylate-specific phosphodiesterase.
				note	degrades c-di-GMP to pGpG
                                note    FunctionalCategory: conserved hypotheticals
				EC number	3.1.4.52
4043859	4043041	CDS
				locus_tag	Rv3600c
				product	Conserved protein, Putative Pantothenate kinase.
				note	FunctionalCategory: conserved hypotheticals
3180531	3179368	CDS
				locus_tag	Rv2868c
				gene	gcpE
				product	Probable GcpE protein, Putative (E)-4-hydroxy-3-methylbut-2-enyl-diphosphate synthase (flavodoxin).
				note	FunctionalCategory: conserved hypotheticals
				experiment	COORDINATES:N-terminal peptide mass spectrometry [PMID: 26536359]
1938838	1939602	CDS
				locus_tag	Rv1711
				product	Conserved hypothetical protein, Putative 23S rRNA pseudouridine(2604) synthase.
				note	FunctionalCategory: conserved hypotheticals
57410	57973	CDS
				locus_tag	Rv0052
				product	Conserved protein, Putative Cyclohexyl-isocyanide hydratase.
				note	FunctionalCategory: conserved hypotheticals
1284992	1286287	CDS
				locus_tag	Rv1159
				product	Mannosyltransferase PimE, Putative 4a-hydroxytetrahydrobiopterin dehydratase.
				note	FunctionalCategory: cell wall and cell processes
2470463	2469387	CDS
				locus_tag	Rv2205c
				product	Conserved hypothetical protein, Putative Glycerate 3-kinase.
				note	FunctionalCategory: conserved hypotheticals
248888	248115	CDS
				locus_tag	Rv0208c
				product	Hypothetical methlytransferase (methylase), Putative Bacteriochlorophyllide d C-20 methyltransferase., Putative Bacteriochlorophyllide d C-8(2)-methyltransferase., Putative Bacteriochlorophyllide d C-12(1)-methyltransferase., Putative 5'-demethylyatein 5'-O-methyltransferase., Putative Reticuline N-methyltransferase., Putative Norbelladine O-methyltransferase., Putative 4-amino-anhydrotetracycline N(4)-methyltransferase., Putative Methanethiol S-methyltransferase., Putative Xanthohumol 4'-O-methyltransferase., Putative Desmethylxanthohumol 6'-O-methyltransferase., Putative tRNA (guanine(46)-N(7))-methyltransferase.
				note	FunctionalCategory: intermediary metabolism and respiration
				experiment	COORDINATES:N-terminal peptide mass spectrometry [PMID: 26536359]
1243013	1242864	CDS
				locus_tag	Rv1119c
				product	Hypothetical protein, Putative Glycosylphosphatidylinositol diacylglycerol-lyase., Putative FAD-AMP lyase (cyclizing)., Putative tRNA-intron lyase., Putative Cyclic pyranopterin monophosphate synthase., Putative 6-pyruvoyltetrahydropterin synthase., Putative (+)-delta-cadinene synthase., Putative 2-C-methyl-D-erythritol 2,4-cyclodiphosphate synthase., Putative Phosphatidylinositol diacylglycerol-lyase., Putative Adenylate cyclase.
				note	FunctionalCategory: conserved hypotheticals
1008944	1010062	CDS
				locus_tag	Rv0906
				product	Conserved protein, Putative N-acetylphosphatidylethanolamine-hydrolyzing phospholipase D.
				note	FunctionalCategory: conserved hypotheticals
3818042	3820402	CDS
				locus_tag	Rv3401
				product	probable serine hydrolase, Putative Type 1 galactoside alpha-(1,2)-fucosyltransferase., Putative Globoside alpha-N-acetylgalactosaminyltransferase., Putative Galactinol--sucrose galactosyltransferase., Putative Ceramide glucosyltransferase., Putative N-acetyllactosaminide 3-alpha-galactosyltransferase., Putative Cyanohydrin beta-glucosyltransferase., Putative Dolichyl-phosphate beta-D-mannosyltransferase., Putative Flavone 7-O-beta-glucosyltransferase., Putative Glucosaminylgalactosylglucosylceramide beta-galactosyltransferase., Putative Glucuronosyltransferase., Putative Maltose phosphorylase.
                                experiment      DESCRIPTION:Protein expression and purification, click-chemistry activity-based probe, liquid chromatography-mass spectrometry (LC-MS)[PMID: 26853625]
                                inference       ab initio prediction:PHYRE [PMID: 26853625]
				note	FunctionalCategory: intermediary metabolism and respiration
				note	predicted to be homologous to trehalose phosphorylase, but trehalose phosphorylase is shown to be non-essential for Mycobacterium tuberculosis [PMID: 15703182]
				EC number	3.2.1.-
881459	882418	CDS
				locus_tag	Rv0787
				product	Unknown protein, Probable Phosphoribosylformylglycinamidine synthase.
				note	FunctionalCategory: conserved hypotheticals
4144916	4143951	CDS
				gene	egtD
				locus_tag	Rv3701c
				product	histidine methyltransferase EgtD, Probable L-histidine N(alpha)-methyltransferase.
				experiment	DESCRIPTION:protein expression and purification; in vitro methyltransferase assay; knockout and complementation [PMID: 26229105]
				note	FunctionalCategory: conserved hypotheticals
				note	likely involved in ergothioneine biosyntehesis [PMID: 26229105]
				note	negatively regulated by serine/threonine protein kinase D (PknD)
				note    induced and exported in vivo [PMID: 28442606]
				EC number	2.1.1.44
product	Prostaglandin-F synthase.Prostaglandin-F synthase., Prostaglandin-F synthase., Prostaglandin-F synthase., Prostaglandin-F synthase., Prostaglandin-F synthase, Prostaglandin-F synthase., Prostaglandin-F synthase., Prostaglandin-F synthase., PutativeProstaglandin-F synthase., PutativeProstaglandin-F synthase., Putative Prostaglandin-F synthase., Putative Prostaglandin-F synthase., Putative Prostaglandin-F synthase., Putative Prostaglandin-F synthase.
3597766	3597551	CDS
				locus_tag	Rv3221c
				product	Biotinylated protein TB7.3, Putative Pyruvate carboxylase.
				note	FunctionalCategory: lipid metabolism
595302	594802	CDS
				locus_tag	Rv0504c
				product	Conserved protein, Probable 3-hydroxyacyl-[acyl-carrier-protein] dehydratase.
				note	FunctionalCategory: conserved hypotheticals
1147019	1147978	CDS
				locus_tag	Rv1026
				gene	ppx2
				product	exopolyphosphatase, Putative Exopolyphosphatase.
				experiment	DESCRIPTION:recombinant in vitro expression, protein purification, polyphosphatase enzyme activity assay, conditional gene knockdown, transmission electron microscopy, RNA-Seq [PMID: 25784702]
				inference	DESCRIPTION:alignment:ClustalW [PMID: 19304823]
				note	FunctionalCategory: virulence, detoxification, adaptation
				note 	has hydrolytic activity against long-chain polyphosphate [PMID:25784702]
				note	gene knockdown reduces susceptibility to isoniazid [PMID:25784702]
				note	gene knockdown increases resistance to heat and low pH [PMID:25784702]
				note	gene knockdown increases cell wall thickness while decreasing permeability [PMID:25784702] 
				note	gene knockdown enhances cellular survival during macrophage infection [PMID:25784702]
				note	gene knockdown of results in showed global transcriptional changes, including reduced expression of genes encoding enzymes involved in glycerol-3-phosphate (G3P) synthesis [PMID:25784702]
				note    induced and exported in vivo [PMID: 28442606]
				EC number	3.6.1.11
				
4168128	4166821	CDS
				locus_tag	Rv3722c
				product	probable serine hydrolase, Probable (S)-3,5-dihydroxyphenylglycine transaminase., Probable GDP-perosamine synthase., Probable L-glutamine:3-amino-2,3-dideoxy-scyllo-inosose aminotransferase., Probable L-glutamine:2-deoxy-scyllo-inosose aminotransferase., Probable Beta-methylphenylalanine transaminase., Probable dTDP-3-amino-3,4,6-trideoxy-alpha-D-glucose transaminase., Probable Lysine--8-amino-7-oxononanoate transaminase., Probable 3-dehydro-glucose-6-phosphate--glutamate transaminase., Probable 8-amino-3,8-dideoxy-alpha-D-manno-octulosonate transaminase., Probable (5-formylfuran-3-yl)methyl phosphate transaminase., Probable Aspartate transaminase., Probable dTDP-4-dehydro-2,3,6-trideoxy-D-glucose 4-aminotransferase., Probable 3-aminobutanoyl-CoA transaminase., Probable (S)-ureidoglycine--glyoxylate transaminase., Probable Glutamine--fructose-6-phosphate transaminase (isomerizing)., Probable Succinyldiaminopimelate transaminase., Probable Asparagine--oxo-acid transaminase., Probable Glutamine--pyruvate transaminase., Probable Alanine--oxo-acid transaminase., Probable Ornithine aminotransferase., Probable D-amino-acid transaminase., Probable Acetylornithine transaminase., Probable Beta-alanine--pyruvate transaminase., Probable 4-aminobutyrate--2-oxoglutarate transaminase.
				experiment	DESCRIPTION:Protein expression and purification, click-chemistry activity-based probe, liquid chromatography Mass Spectrometry[PMID: 26853625]
				note	FunctionalCategory: conserved hypotheticals
				experiment	COORDINATES:N-terminal peptide mass spectrometry [PMID: 26536359]
				EC number	3.1.-.-
315766	314864	CDS
				locus_tag	Rv0263c
				product	Conserved hypothetical protein, Probable Allophanate hydrolase.
				note	FunctionalCategory: conserved hypotheticals
2898043	2898783	CDS
				locus_tag	Rv2573
				product	Conserved hypothetical protein, Probable 2-dehydropantoate 2-reductase.
				note	FunctionalCategory: conserved hypotheticals
				note	possibly mediates the conversion of 2-dehydropantoate to (R)-pantoate (PanE) [PMID: 27676316]
				note	possible involvement in pantanoate biosynthesis pathway [PMID: 27676316]
				ncnote	this publication and UniProt mention this gene to mediate the above-mentioned reaction (based on sequence similarity)

4145614	4144913	CDS
				locus_tag	Rv3702c
				product	Conserved hypothetical protein, Probable Gamma-glutamyl hercynylcysteine S-oxide hydrolase.
				note	FunctionalCategory: conserved hypotheticals
1470252	1469671	CDS
				locus_tag	Rv1314c
				experiment	DESCRIPTION:genome-wide transposon mutagenesis; small number of mutants mapped to Rv1314c [PMID: 23407640]
				note	FunctionalCategory: conserved hypotheticals
				product	putative PduO-type ATP co(I)rrinoid adenosyltransferase, Probable Cob(I)yrinic acid a,c-diamide adenosyltransferase.
				EC number	2.5.1.17
1695144	1694545	CDS
				locus_tag	Rv1504c
				product	Conserved hypothetical protein, Putative UDP-4-amino-4,6-dideoxy-N-acetyl-beta-L-altrosamine transaminase.
				note	FunctionalCategory: conserved hypotheticals
893273	892266	CDS
				locus_tag	Rv0799c
				product	Heme-dependent peroxidase , Probable Dye decolorizing peroxidase.
				note	FunctionalCategory: conserved hypotheticals
				experiment	DESCRIPTION:Protein purification and expression, preliminary characterization using peroxidase activity assays, enzyme kinetics assay[PMID: 24855650]
				EC number	1.1.11.-
1668419	1669144	CDS
				locus_tag	Rv1478
				gene	ripB
				product	peptidoglycan hydrolase RipB, Probable Gamma-D-glutamyl-meso-diaminopimelate peptidase.
				experiment	DESCRIPTION:protein expression and purification, x-ray crystallography, peptidoglycan binding assay, enzyme activity assay (using defined peptidoglycan substrates) [PMID: 21864539]
				inference	DESCRIPTION:alignment:ClustalW [PMID: 21864539]
				note	FunctionalCategory: virulence, detoxification, adaptation
				note	Hydrolyzed only small peptidoglycan fragments (Bacillus subtilis derived high-molecular-weight peptidoglycans used as substrate) [PMID: 21864539]
				note	belongs to the NlpC/p60 family [PMID: 21864539] 
				note	cleaves particular peptidoglycan fragments between d-glutamate and meso-diaminopimelate [PMID: 21864539] 
				EC number	3.2.1.-
1589386	1589901	CDS
				locus_tag	Rv1413
				product	Conserved hypothetical protein, Putative Threo-3-hydroxy-D-aspartate ammonia-lyase.
				experiment	DESCRIPTION:electron capture dissociation by mass spectrometry [PMID: 12648932]
				note	putative Cell wall/cell processes/metabolism
				note	FunctionalCategory: conserved hypotheticals
				
1540645	1539512	CDS
				locus_tag	Rv1367c
				experiment	DESCRIPTION:Protein expression and purification, click-chemistry activity-based probe, liquid chromatography Mass Spectrometry[PMID: 26853625]
				inference	DESCRIPTION:ab initio prediction:PHYRE [PMID: 26853625]
				note	FunctionalCategory: conserved hypotheticals
				product	probable serine hydrolase, Putative Gluconolactonase., Putative Uronolactonase., Putative Sterol esterase., Putative L-arabinonolactonase., Putative Gluconolactonase., Putative Tropinesterase., Putative Pectinesterase., Putative Carboxylesterase., Putative 3-oxoadipate enol-lactonase., Putative Carboxylesterase., Putative Chlorophyllase., Putative Poly(ethylene terephthalate) hydrolase., Putative Chlorophyllide a hydrolase., Putative Mono(ethylene terephthalate) hydrolase.
				EC number	3.1.-.-
2000074	2000433	CDS
				locus_tag	Rv1767
				product	Conserved protein, Probable Peroxiredoxin.
				note	FunctionalCategory: conserved hypotheticals
